/* XPM */
static const char * resetview_xpm[] = {
"16 16 3 1",
" 	c None",
".	c #008000",
"+	c #000080",
".....      .....",
".              .",
".              .",
".  +  ++++     .",
".  +++    ++   .",
"   ++      +    ",
"   ++++     +   ",
"            +   ",
"            +   ",
"   +        +   ",
"    +      +    ",
".   ++    ++   .",
".     ++++     .",
".              .",
".              .",
".....      ....."};
